"Id";"Designator";"Package";"Quantity";"Designation";"Supplier and ref";
1;"D8,D9,D6,D7";"LED_D3.0mm_Clear";4;"LED";;;
2;"J1";"PinSocket_2x20_P2.54mm_Vertical_Centered_Anchor";1;"GPIO_CONNECTOR";;;
3;"V2";"USB_A_Molex_105057_Vertical";1;"ac sin(0 230 50 0 0 0) dc 0";;;
4;"D10";"D_5W_P5.08mm_Vertical_AnodeUp";1;"0.5V";;;
5;"D1";"Diode_Bridge_Round_D8.9mm";1;"D_Bridge_-A+A";;;
6;"D5";"D_5W_P5.08mm_Vertical_AnodeUp";1;"D_Zener";;;
7;"BT1";"Battery_Panasonic_CR2025-V1AK_Vertical_CircularHoles";1;"12V";;;
8;"D2";"D_5W_P5.08mm_Vertical_AnodeUp";1;"DIODE";;;
9;"U1";"SuperSOT-3";1;"Opamp_Dual_Generic";;;
10;"H1,H2,H3,H4";"MountingHole_2.7mm_M2.5_uHAT_RPi";4;"MountingHole";;;
11;"R1,R3,R8";"R_Axial_DIN0204_L3.6mm_D1.6mm_P1.90mm_Vertical";3;"1000";;;
12;"R2";"R_Axial_DIN0204_L3.6mm_D1.6mm_P1.90mm_Vertical";1;"200";;;
13;"R4,R5";"R_Axial_DIN0204_L3.6mm_D1.6mm_P1.90mm_Vertical";2;"20";;;
14;"R6";"R_Axial_DIN0204_L3.6mm_D1.6mm_P1.90mm_Vertical";1;"75";;;
15;"R7";"R_Axial_DIN0204_L3.6mm_D1.6mm_P1.90mm_Vertical";1;"500";;;
16;"R9";"R_Axial_DIN0204_L3.6mm_D1.6mm_P1.90mm_Vertical";1;"1250";;;
17;"R10";"R_Axial_DIN0204_L3.6mm_D1.6mm_P1.90mm_Vertical";1;"12000";;;
18;"U2";"SOT-23-6";1;"DAC081C081CIMK";;;
19;"C1";"CP_Radial_D4.0mm_P1.50mm";1;"250u";;;
