EESchema Schematic File Version 4
EELAYER 30 0
EELAYER END
$Descr A4 11693 8268
encoding utf-8
Sheet 2 4
Title "STATUS LEDs For uHAT"
Date "2021-06-03"
Rev "0.1"
Comp "Design Group 1"
Comment1 ""
Comment2 ""
Comment3 ""
Comment4 ""
$EndDescr
Wire Notes Line
	5450 3650 5450 6800
Wire Notes Line
	5450 6800 1950 6800
Wire Notes Line
	1950 6800 1950 3650
Wire Notes Line
	5450 3650 1950 3650
$Comp
L Device:R_US R6
U 1 1 60B8FBCB
P 3550 5200
F 0 "R6" H 3618 5246 50  0000 L CNN
F 1 "75" H 3618 5155 50  0000 L CNN
F 2 "Resistor_THT:R_Axial_DIN0204_L3.6mm_D1.6mm_P1.90mm_Vertical" V 3590 5190 50  0001 C CNN
F 3 "~" H 3550 5200 50  0001 C CNN
	1    3550 5200
	1    0    0    -1  
$EndComp
Wire Wire Line
	3550 4850 3550 5050
Wire Wire Line
	3550 5350 3550 5750
Text GLabel 3550 5750 0    50   Input ~ 0
Ground
Text GLabel 3550 4150 0    50   Input ~ 0
Vout_Op_Amp
Wire Notes Line
	6500 3600 10900 3600
Wire Notes Line
	10900 3600 10900 6250
Wire Notes Line
	10900 6250 6500 6250
Wire Notes Line
	6500 6250 6500 3600
Wire Wire Line
	7400 4600 7700 4600
Text GLabel 7400 4600 0    50   Input ~ 0
Vout_Battery
$Comp
L Device:LED D7
U 1 1 60B91E07
P 7850 4600
F 0 "D7" H 7843 4345 50  0000 C CNN
F 1 "LED" H 7843 4436 50  0000 C CNN
F 2 "LED_THT:LED_D1.8mm_W1.8mm_H2.4mm_Horizontal_O1.27mm_Z1.6mm" H 7850 4600 50  0001 C CNN
F 3 "~" H 7850 4600 50  0001 C CNN
	1    7850 4600
	-1   0    0    1   
$EndComp
$Comp
L Device:LED D8
U 1 1 60B929DC
P 8400 4600
F 0 "D8" H 8393 4345 50  0000 C CNN
F 1 "LED" H 8393 4436 50  0000 C CNN
F 2 "LED_THT:LED_D1.8mm_W1.8mm_H2.4mm_Horizontal_O1.27mm_Z1.6mm" H 8400 4600 50  0001 C CNN
F 3 "~" H 8400 4600 50  0001 C CNN
	1    8400 4600
	-1   0    0    1   
$EndComp
$Comp
L Device:LED D9
U 1 1 60B92EC5
P 8950 4600
F 0 "D9" H 8943 4345 50  0000 C CNN
F 1 "LED" H 8943 4436 50  0000 C CNN
F 2 "LED_THT:LED_D1.8mm_W1.8mm_H2.4mm_Horizontal_O1.27mm_Z1.6mm" H 8950 4600 50  0001 C CNN
F 3 "~" H 8950 4600 50  0001 C CNN
	1    8950 4600
	-1   0    0    1   
$EndComp
Wire Wire Line
	8000 4600 8200 4600
Wire Wire Line
	8550 4600 8750 4600
Wire Wire Line
	9100 4600 9400 4600
$Comp
L Device:R_US R7
U 1 1 60B9355D
P 9400 5000
F 0 "R7" H 9468 5046 50  0000 L CNN
F 1 "500" H 9468 4955 50  0000 L CNN
F 2 "Resistor_THT:R_Axial_DIN0204_L3.6mm_D1.6mm_P1.90mm_Vertical" V 9440 4990 50  0001 C CNN
F 3 "~" H 9400 5000 50  0001 C CNN
	1    9400 5000
	1    0    0    -1  
$EndComp
$Comp
L Device:R_US R8
U 1 1 60B93B3F
P 8750 5000
F 0 "R8" H 8818 5046 50  0000 L CNN
F 1 "1000" H 8818 4955 50  0000 L CNN
F 2 "Resistor_THT:R_Axial_DIN0204_L3.6mm_D1.6mm_P1.90mm_Vertical" V 8790 4990 50  0001 C CNN
F 3 "~" H 8750 5000 50  0001 C CNN
	1    8750 5000
	1    0    0    -1  
$EndComp
$Comp
L Device:R_US R9
U 1 1 60B93E7B
P 8200 5000
F 0 "R9" H 8268 5046 50  0000 L CNN
F 1 "1250" H 8268 4955 50  0000 L CNN
F 2 "Resistor_THT:R_Axial_DIN0204_L3.6mm_D1.6mm_P1.90mm_Vertical" V 8240 4990 50  0001 C CNN
F 3 "~" H 8200 5000 50  0001 C CNN
	1    8200 5000
	1    0    0    -1  
$EndComp
Wire Wire Line
	9400 4600 9400 4850
Wire Wire Line
	9400 5350 8750 5350
Wire Wire Line
	9400 5150 9400 5350
Wire Wire Line
	8200 4600 8200 4850
Wire Wire Line
	8200 5150 8200 5350
Connection ~ 8200 4600
Wire Wire Line
	8200 4600 8250 4600
Connection ~ 8200 5350
Wire Wire Line
	8200 5350 7400 5350
Wire Wire Line
	8750 4600 8750 4850
Wire Wire Line
	8750 5150 8750 5350
Connection ~ 8750 4600
Wire Wire Line
	8750 4600 8800 4600
Connection ~ 8750 5350
Wire Wire Line
	8750 5350 8200 5350
Text GLabel 7400 5350 0    50   Input ~ 0
Ground
Wire Wire Line
	3550 4550 3550 4150
$Comp
L Device:LED D6
U 1 1 60B95E5D
P 3550 4700
F 0 "D6" V 3589 4582 50  0000 R CNN
F 1 "LED" V 3498 4582 50  0000 R CNN
F 2 "LED_THT:LED_D1.8mm_W1.8mm_H2.4mm_Horizontal_O1.27mm_Z1.6mm" H 3550 4700 50  0001 C CNN
F 3 "~" H 3550 4700 50  0001 C CNN
	1    3550 4700
	0    -1   -1   0   
$EndComp
$EndSCHEMATC
