G04 #@! TF.GenerationSoftware,KiCad,Pcbnew,(5.1.10)-1*
G04 #@! TF.CreationDate,2021-06-04T15:52:16+02:00*
G04 #@! TF.ProjectId,raspberrypi_zerow_uhat,72617370-6265-4727-9279-70695f7a6572,1.0*
G04 #@! TF.SameCoordinates,Original*
G04 #@! TF.FileFunction,Profile,NP*
%FSLAX46Y46*%
G04 Gerber Fmt 4.6, Leading zero omitted, Abs format (unit mm)*
G04 Created by KiCad (PCBNEW (5.1.10)-1) date 2021-06-04 15:52:16*
%MOMM*%
%LPD*%
G01*
G04 APERTURE LIST*
G04 #@! TA.AperFunction,Profile*
%ADD10C,0.150000*%
G04 #@! TD*
G04 APERTURE END LIST*
D10*
X182532000Y-94068000D02*
X182476654Y-118071055D01*
X120532000Y-91068000D02*
X179532000Y-91068000D01*
X117532000Y-118068000D02*
X117532000Y-94068000D01*
X117532000Y-94068000D02*
G75*
G02*
X120532000Y-91068000I3000000J0D01*
G01*
X119665951Y-121464888D02*
G75*
G02*
X117532000Y-118068000I1366049J3226888D01*
G01*
X182476653Y-118071055D02*
G75*
G02*
X179032000Y-121238000I-3024653J-166945D01*
G01*
X179532000Y-91068000D02*
G75*
G02*
X182532000Y-94068000I0J-3000000D01*
G01*
X119665951Y-121464888D02*
X179032000Y-121238000D01*
M02*
